<svg xmlns="http://www.w3.org/2000/svg" width="24.751" height="26.2" viewBox="0 0 24.751 26.2">
  <g id="Group_564" data-name="Group 564" transform="translate(-21.886 -255.4)">
    <path id="Path_3001" data-name="Path 3001" d="M205.686,193.869a.648.648,0,0,0-.631-.67H190.976l3-3.184a.7.7,0,0,0,0-.945.605.605,0,0,0-.89,0l-4.081,4.33h0a.318.318,0,0,0-.042.052c-.007.007-.014.015-.014.022s-.014.022-.021.03a.058.058,0,0,0-.014.03c-.007.007-.007.015-.014.03s-.007.022-.014.03-.007.022-.014.03a12.584,12.584,0,0,1-.014.06c0,.007-.007.022-.007.03s-.007.022-.007.03-.007.022-.007.037a.047.047,0,0,1-.007.03.428.428,0,0,0,0,.134.047.047,0,0,0,.007.03.071.071,0,0,0,.007.037c0,.007.007.022.007.03s.007.022.007.03.007.022.007.03.007.022.007.03.007.022.014.03.007.022.014.03.007.015.014.03a.058.058,0,0,1,.014.03c.007.007.014.022.021.03s.014.015.014.022a.319.319,0,0,1,.042.052h0l4.081,4.33a.607.607,0,0,0,.449.193.636.636,0,0,0,.449-.193.7.7,0,0,0,0-.945l-3.008-3.2h14.072A.654.654,0,0,0,205.686,193.869Z" transform="translate(227.672 462.567) rotate(180)" fill="#4891ce" stroke="#4891ce" stroke-width="0.2"/>
    <path id="Path_3002" data-name="Path 3002" d="M102.316,38.8a.617.617,0,0,0,.684-.522V34.868C103,33.3,101.319,32,99.266,32H86.7C84.65,32,83,33.3,83,34.868V55.132C83,56.7,84.65,58,86.7,58H99.266c2.053,0,3.734-1.3,3.734-2.868V51.719a.71.71,0,0,0-1.369,0v3.413a2.162,2.162,0,0,1-2.365,1.823H86.7a2.13,2.13,0,0,1-2.335-1.823V34.868A2.13,2.13,0,0,1,86.7,33.045H99.266a2.162,2.162,0,0,1,2.365,1.823v3.413A.617.617,0,0,0,102.316,38.8Z" transform="translate(129.537 313.5) rotate(180)" fill="#343a40" stroke="#343a40" stroke-width="0.2"/>
  </g>
</svg>
