<svg xmlns="http://www.w3.org/2000/svg" width="20" height="18.4" viewBox="0 0 20 18.4">
  <g id="Group_598" data-name="Group 598" transform="translate(-240.5 -774.5)">
    <g id="Rectangle_279" data-name="Rectangle 279" transform="translate(242 776)" fill="none" stroke="#343a40" stroke-width="1.5">
      <rect width="17" height="15.4" rx="2" stroke="none"/>
      <rect x="-0.75" y="-0.75" width="18.5" height="16.9" rx="2.75" fill="none"/>
    </g>
    <g id="Group_593" data-name="Group 593" transform="translate(-0.5 0)">
      <rect id="Rectangle_267" data-name="Rectangle 267" width="1.75" height="10" rx="0.5" transform="translate(246 779)" fill="#4c8fce"/>
      <rect id="Rectangle_275" data-name="Rectangle 275" width="1.75" height="7" rx="0.5" transform="translate(250 782)" fill="#4c8fce"/>
      <rect id="Rectangle_277" data-name="Rectangle 277" width="1.75" height="11" rx="0.5" transform="translate(254 778)" fill="#4c8fce"/>
    </g>
  </g>
</svg>
